<svg viewBox="0 0 94 33" fill="none" xmlns="http://www.w3.org/2000/svg" preserveAspectRatio="none">
<path d="M10.2751 9.84705C9.70739 9.84705 9.1629 9.62152 8.76145 9.22006C8.36 8.81861 8.13446 8.27412 8.13446 7.70638C8.13446 7.13864 8.36 6.59415 8.76145 6.19269C9.1629 5.79124 9.70739 5.56571 10.2751 5.56571C10.8429 5.56571 11.3874 5.79124 11.7888 6.19269C12.1903 6.59415 12.4158 7.13864 12.4158 7.70638C12.4158 7.9875 12.3604 8.26586 12.2529 8.52558C12.1453 8.7853 11.9876 9.02128 11.7888 9.22006C11.59 9.41884 11.3541 9.57652 11.0943 9.6841C10.8346 9.79168 10.5563 9.84705 10.2751 9.84705V9.84705ZM10.2751 1.71249C8.68546 1.71249 7.16089 2.34399 6.03682 3.46806C4.91275 4.59213 4.28125 6.1167 4.28125 7.70638C4.28125 12.2018 10.2751 18.8379 10.2751 18.8379C10.2751 18.8379 16.269 12.2018 16.269 7.70638C16.269 6.1167 15.6375 4.59213 14.5135 3.46806C13.3894 2.34399 11.8648 1.71249 10.2751 1.71249V1.71249Z" fill="#1F5C4E"/>
<path d="M9 22.6238C25.5688 31.8715 59.8624 37.0092 93 22.6238" stroke="#1F5C4E" stroke-width="2"/>
</svg>
