<svg width="1366" height="222" viewBox="0 0 1366 222" fill="none" xmlns="http://www.w3.org/2000/svg">
<path d="M845.357 88.1059C1176.08 0.400482 1330.25 19.8572 1366 40.5488V222L0 222V0C23.5518 13.5162 173.569 65.6089 289.636 88.1059C502.693 129.402 758.666 113.47 845.357 88.1059Z" fill="#E2F3E3"/>
</svg>
